Measurement-Free QEC · TensorQEC.jl
…
table = make_table(st, 1)

┌────────────────────┬────────────────┐
│            Sydrome │          Error │
├────────────────────┼────────────────┤
│             [1, 3] │         5 => Z │
│          [4, 5, 6] │         7 => X │
│                [5] │         2 => X │
│             [4, 5] │         3 => X │
│                [4] │         1 => X │
│                [1] │         1 => Z │
│                [6] │         4 => X │
│             [2, 3] │         6 => Z │
│       [1, 3, 4, 6] │ 5 => Z, 5 => X │
│             [3, 6] │ 4 => Z, 4 => X │
│             [1, 4] │ 1 => Z, 1 => X │
│             [1, 2] │         3 => Z │
│          [1, 2, 3] │         7 => Z │
│             [4, 6] │         5 => X │
│             [5, 6] │         6 => X │
│                [3] │         4 => Z │
│         ⋮          │       ⋮        │
└────────────────────┴────────────────┘
                         5 rows omitted
…
